<?xml version="1.0" encoding="utf-8"?>
<!-- Generator: Adobe Illustrator 22.1.0, SVG Export Plug-In . SVG Version: 6.00 Build 0)  -->
<svg version="1.1" id="Capa_1" xmlns="http://www.w3.org/2000/svg" xmlns:xlink="http://www.w3.org/1999/xlink" x="0px" y="0px" width='25px' height='25px'
	 viewBox="0 0 25 25" style="enable-background:new 0 0 25 25;" xml:space="preserve">
<style type="text/css">
	.st0{fill:#515151;}
</style>
<g>
	<g>
		<g>
			<circle class="st0" cx="12.5" cy="12.5" r="3.1"/>
			<circle class="st0" cx="12.5" cy="21.9" r="3.1"/>
			<circle class="st0" cx="12.5" cy="3.1" r="3.1"/>
		</g>
	</g>
</g>
</svg>
